[{ "Name" : "The God Father II","release_year":2012,"gross income":"$30000",
  "Actors":"","director_name":"michael" ,"Picture":"godfather1.png","rating":7,"Genre":"action"},
  { "Name" : "The God Father I","release_year":2010,"gross income":"$30000",
    "Actors":"","director_name":"michael" ,"Picture":"godfather2.png","rating":6,"Genre":"action"},
  { "Name" : "Better Call Saul","release_year":2012,"gross income":"$30000",
    "Actors":"","director_name":"michael" ,"Picture":"bettercallsaul.png","rating":5,"Genre":"action"},
  { "Name" : "Butter Fly Effect","release_year":2012,"gross income":"$30000",
    "Actors":"","director_name":"michael" ,"Picture":"butterflyeffect.png","rating":5,"Genre":"action"},
  { "Name" : "Fight Club","release_year":2012,"gross income":"$30000",
    "Actors":"","director_name":"michael" ,"Picture":"fightclub.png","rating":5,"Genre":"action"},
  { "Name" : "Street Fighter","release_year":2012,"gross income":"$30000",
    "Actors":"","director_name":"michael" ,"Picture":"streetfighter.png","rating":5,"Genre":"action"}

]

